{
    "buttonText": false,
    "component": "packs-components/Markdown",
    "skip": {
      "!==": [
        "${unseen_aspect}",
        "false"
      ]
    },
    "source": "# Thank you!\n\nThanks for completing our survey! Please copy the following code (including the \"-\") to submit the HIT on MTurk: \n**```${key}```**"
}