{
    "component": "packs-components/Randomize",
    "seed": "$workerId",
    "states": [
      {
        "vig_at_end": true,
        "vig_after_walk": false
      },
      {
        "vig_at_end": false,
        "vig_after_walk": true
      }
    ]
  }

