{
    "component": "wiagl-components/CheckboxTable",
    "module_name" :"Race-ethnicity",
    "unanswered_message": "$unanswered_message",
    "labels": {
        "WHITE": ["German", "Irish", "English", "Italian", "Polish", "French"],
        "HISPANIC, LATINO, OR SPANISH": ["Mexican or Mexican American", "Puerto Rican", "Cuban", "Salvadorian", "Dominican", "Colombian"],
        "BLACK OR AFRICAN AMERICAN": ["African American", "Jamaican", "Haitian", "Nigerian", "Ethiopian", "Somali"],
        "ASIAN": ["Chinese", "Filipino", "Asian Indian", "Vietnamese", "Korean", "Japanese"],
        "AMERICAN INDIAN OR ALASKA NATIVE": [],
        "MIDDLE EASTERN OR NORTH AFRICAN": ["Lebanese", "Iranian", "Egyptian", "Syrian", "Moroccan", "Israeli"],
        "NATIVE HAWAIIAN OR OTHER PACIFIC ISLANDER": ["Native Hawaiian", "Samoan", "Chamorro", "Tongan", "Fijian", "Marshallese"],
        "SOME OTHER RACE OR ETHNICITY": []
    },
    "topInstructions": {
        "WHITE": "Provide details below.",
        "HISPANIC, LATINO, OR SPANISH": "Provide details below.",
        "BLACK OR AFRICAN AMERICAN": "Provide details below.",
        "ASIAN": "Provide details below.",
        "AMERICAN INDIAN OR ALASKA NATIVE": "Print, for example, Navajo Nation, Blackfeet Tribe, Mayan, Aztec, Tlingit, etc.",
        "MIDDLE EASTERN OR NORTH AFRICAN": "Provide details below.",
        "NATIVE HAWAIIAN OR OTHER PACIFIC ISLANDER": "Provide details below.",
        "SOME OTHER RACE OR ETHNICITY": "Print details below."
    },
    "bottomInstructions": {
        "WHITE": "Print if not listed (e.g., Scottish, Norwegian, Dutch, etc.)",
        "HISPANIC, LATINO, OR SPANISH": "Print if not listed (e.g., Guatemalan, Spaniard, Ecuadorian, etc.)",
        "BLACK OR AFRICAN AMERICAN": "Print if not listed (e.g., Ghanaian, South African, Barbadian, etc.)",
        "ASIAN": "Print if not listed (e.g., Pakistani, Cambodian, Hmong, etc.)",
        "MIDDLE EASTERN OR NORTH AFRICAN": "Print if not listed (e.g., Algerian, Iraqi, Kurdish, etc.)",
        "NATIVE HAWAIIAN OR OTHER PACIFIC ISLANDER": "Print if not listed (e.g., Palauan, Tahitian, Chuukese, etc.)"
    },

    "instructions": "Please mark all boxes that apply AND report ethnicities in the space provided. Note, you may report more than one group.",
    "title": "More background questions: Race/Ethnicity"
}